labs/lab1/FIFO/fifoSignals.vcd
$date
	Tue Feb 27 15:55:39 2024
$end
$version
	Icarus Verilog
$end
$timescale
	1ps
$end
$scope module fifoTestbench $end
$scope module DUT $end
$var wire 1 ! clock $end
$var wire 1 " pop $end
$var wire 1 # push $end
$var wire 8 $ pushData [7:0] $end
$var wire 1 % reset $end
$var wire 5 & push_pointer_wire [4:0] $end
$var wire 5 ' pop_pointer_wire [4:0] $end
$var wire 8 ( popData [7:0] $end
$var wire 1 ) full $end
$var wire 1 * empty $end
$var parameter 32 + bitWidth $end
$var parameter 32 , nrOfEntries $end
$var reg 5 - pop_pointer [4:0] $end
$var reg 5 . push_pointer [4:0] $end
$upscope $end
$upscope $end
$enddefinitions $end
$comment Show the parameter values. $end
$dumpall
b100000 ,
b1000 +
$end
#0
$dumpvars
bx .
b0 -
x*
0)
bx (
bx '
bx &
1%
b0 $
0#
0"
0!
$end
#5
b0 &
b0 '
1*
b0 .
1!
#10
0!
#15
1!
#20
0%
0!
#25
1!
#30
0!
#35
1!
#40
1#
0!
#45
b1 &
b0 (
1!
#50
b1 $
0!
#55
0*
b1 .
b10 &
b1 (
1!
#60
b10 $
0!
#65
b11 &
b10 .
b10 (
1!
#70
b11 $
0!
#75
b11 .
b100 &
b11 (
1!
#80
b100 $
0!
#85
b101 &
b100 .
b100 (
1!
#90
b101 $
0!
#95
b101 .
b110 &
b101 (
1!
#100
b110 $
0!
#105
b111 &
b110 .
b110 (
1!
#110
b111 $
0!
#115
b111 .
b1000 &
b111 (
1!
#120
b1000 $
0!
#125
b1001 &
b1000 .
b1000 (
1!
#130
b1001 $
0!
#135
b1001 .
b1010 &
b1001 (
1!
#140
b1010 $
0!
#145
b1011 &
b1010 .
b1010 (
1!
#150
b1011 $
0!
#155
b1011 .
b1100 &
b1011 (
1!
#160
b1100 $
0!
#165
b1101 &
b1100 .
b1100 (
1!
#170
b1101 $
0!
#175
b1101 .
b1110 &
b1101 (
1!
#180
b1110 $
0!
#185
b1111 &
b1110 .
b1110 (
1!
#190
b1111 $
0!
#195
b1111 .
b10000 &
b1111 (
1!
#200
b10000 $
0!
#205
b10001 &
b10000 .
b10000 (
1!
#210
b10001 $
0!
#215
b10001 .
b10010 &
b10001 (
1!
#220
b10010 $
0!
#225
b10011 &
b10010 .
b10010 (
1!
#230
b10011 $
0!
#235
b10011 .
b10100 &
b10011 (
1!
#240
b10100 $
0!
#245
b10101 &
b10100 .
b10100 (
1!
#250
b10101 $
0!
#255
b10101 .
b10110 &
b10101 (
1!
#260
b10110 $
0!
#265
b10111 &
b10110 .
b10110 (
1!
#270
b10111 $
0!
#275
b10111 .
b11000 &
b10111 (
1!
#280
b11000 $
0!
#285
b11001 &
b11000 .
b11000 (
1!
#290
b11001 $
0!
#295
b11001 .
b11010 &
b11001 (
1!
#300
b11010 $
0!
#305
b11011 &
b11010 .
b11010 (
1!
#310
b11011 $
0!
#315
b11011 .
b11100 &
b11011 (
1!
#320
b11100 $
0!
#325
b11101 &
b11100 .
b11100 (
1!
#330
b11101 $
0!
#335
b11101 .
b11110 &
b11101 (
1!
#340
b11110 $
0!
#345
b11111 &
b11110 .
b11110 (
1!
#350
b11111 $
0!
#355
b11111 .
b0 &
b11111 (
1!
#360
1"
0#
b100000 $
0!
#365
b1 '
1*
b0 .
b0 (
1!
#370
0!
#375
1)
0*
b1 -
1!
#380
0!
#385
b10 '
1!
#390
0!
#395
0)
b10 -
b11 '
1!
#400
0!
#405
b100 '
b11 -
1!
#410
0!
#415
b100 -
b101 '
1!
#420
0!
#425
b110 '
b101 -
1!
#430
0!
#435
b110 -
b111 '
1!
#440
0!
#445
b1000 '
b111 -
1!
#450
0!
#455
b1000 -
b1001 '
1!
#460
0!
#465
b1010 '
b1001 -
1!
#470
0!
#475
b1010 -
b1011 '
1!
#480
0!
#485
b1100 '
b1011 -
1!
#490
0!
#495
b1100 -
b1101 '
1!
#500
0!
#505
b1110 '
b1101 -
1!
#510
0!
#515
b1110 -
b1111 '
1!
#520
0!
#525
b10000 '
b1111 -
1!
#530
0!
#535
b10000 -
b10001 '
1!
#540
0!
#545
b10010 '
b10001 -
1!
#550
0!
#555
b10010 -
b10011 '
1!
#560
0!
#565
b10100 '
b10011 -
1!
#570
0!
#575
b10100 -
b10101 '
1!
#580
0!
#585
b10110 '
b10101 -
1!
#590
0!
#595
b10110 -
b10111 '
1!
#600
0!
#605
b11000 '
b10111 -
1!
#610
0!
#615
b11000 -
b11001 '
1!
#620
0!
#625
b11010 '
b11001 -
1!
#630
0!
#635
b11010 -
b11011 '
1!
#640
0!
#645
b11100 '
b11011 -
1!
#650
0!
#655
b11100 -
b11101 '
1!
#660
0!
#665
b11110 '
b11101 -
1!
#670
0!
#675
b11110 -
b11111 '
1!
#680
0"
0!
